"Scheme"
{
	"Colors"
	{
		"White" "255 255 255 255"
		"OffWhite" "216 216 216 255"
		"DullWhite" "142 142 142 255"
		"Orange" "255 155 0 255"
		"TransparentBlack" "0 0 0 128"
		"Black" "0 0 0 255"
		"Green" "63 185 73 255"
		"Blank" "0 0 0 0"
	}
	"BaseSettings"
	{
		"Border.Bright" "200 200 200 196"
		"Border.Dark" "40 40 40 196"
		"Border.Selection" "0 0 0 196"
		"Button.TextColor" "White"
		"Button.BgColor" "Blank"
		"Button.ArmedTextColor" "White"
		"Button.ArmedBgColor" "Blank" [$WIN32]
		"Button.ArmedBgColor" "190 115 0 255" [$X360]
		"Button.DepressedTextColor" "White"
		"Button.DepressedBgColor" "Blank"
		"Button.FocusBorderColor" "Black"
		"CheckButton.TextColor" "OffWhite"
		"CheckButton.SelectedTextColor" "White"
		"CheckButton.BgColor" "TransparentBlack"
		"CheckButton.Border1" "Border.Dark"
		"CheckButton.Border2" "Border.Bright"
		"CheckButton.Check" "White"
		"ComboBoxButton.ArrowColor" "DullWhite"
		"ComboBoxButton.ArmedArrowColor" "White"
		"ComboBoxButton.BgColor" "Blank"
		"ComboBoxButton.DisabledBgColor" "Blank"
		"Chat.TypingText" "White"
		"Frame.TitleTextInsetX" "16"
		"Frame.ClientInsetX" "8"
		"Frame.ClientInsetY" "6"
		"Frame.BgColor" "160 160 160 128" [$WIN32]
		"Frame.BgColor" "80 80 80 192" [$X360]
		"Frame.OutOfFocusBgColor" "160 160 160 32" [$WIN32]
		"Frame.OutOfFocusBgColor" "80 80 80 192" [$X360]
		"Frame.FocusTransitionEffectTime" "0.3"
		"Frame.TransitionEffectTime" "0.3"
		"Frame.AutoSnapRange" "0"
		"FrameGrip.Color1" "200 200 200 196"
		"FrameGrip.Color2" "0 0 0 196"
		"FrameTitleButton.FgColor" "200 200 200 196"
		"FrameTitleButton.BgColor" "Blank"
		"FrameTitleButton.DisabledFgColor" "255 255 255 192"
		"FrameTitleButton.DisabledBgColor" "Blank"
		"FrameSystemButton.FgColor" "Blank"
		"FrameSystemButton.BgColor" "Blank"
		"FrameSystemButton.Icon" ""
		"FrameSystemButton.DisabledIcon" ""
		"FrameTitleBar.Font" "UiBold" [$WIN32]
		"FrameTitleBar.Font" "DefaultLarge" [$WIN32]
		"FrameTitleBar.TextColor" "White"
		"FrameTitleBar.BgColor" "Blank"
		"FrameTitleBar.DisabledTextColor" "255 255 255 192"
		"FrameTitleBar.DisabledBgColor" "Blank"
		"GraphPanel.FgColor" "White"
		"GraphPanel.BgColor" "TransparentBlack"
		"Label.TextDullColor" "DullWhite"
		"Label.TextColor" "OffWhite"
		"Label.TextBrightColor" "White"
		"Label.SelectedTextColor" "White"
		"Label.BgColor" "TransparentBlack"
		"Label.DisabledFgColor1" "117 117 117 255"
		"Label.DisabledFgColor2" "30 30 30 255"
		"ListPanel.TextColor" "OffWhite"
		"ListPanel.TextBgColor" "Blank"
		"ListPanel.BgColor" "TransparentBlack"
		"ListPanel.SelectedTextColor" "Black"
		"ListPanel.SelectedBgColor" "Orange"
		"ListPanel.SelectedOutOfFocusBgColor" "255 155 0 128"
		"ListPanel.EmptyListInfoTextColor" "OffWhite"
		"Menu.TextColor" "White"
		"Menu.BgColor" "160 160 160 64"
		"Menu.ArmedTextColor" "Black"
		"Menu.ArmedBgColor" "Orange"
		"Menu.TextInset" "6"
		"Panel.FgColor" "Blank"
		"Panel.BgColor" "DullWhite"
		"ProgressBar.FgColor" "White"
		"ProgressBar.BgColor" "TransparentBlack"
		"PropertySheet.TextColor" "OffWhite"
		"PropertySheet.SelectedTextColor" "White"
		"PropertySheet.TransitionEffectTime" "0.25"
		"RadioButton.TextColor" "DullWhite"
		"RadioButton.SelectedTextColor" "White"
		"RichText.TextColor" "OffWhite"
		"RichText.BgColor" "TransparentBlack"
		"RichText.SelectedTextColor" "Black"
		"RichText.SelectedBgColor" "Orange"
		"ScrollBar.Wide" "17"
		"ScrollBarButton.FgColor" "White"
		"ScrollBarButton.BgColor" "Blank"
		"ScrollBarButton.ArmedFgColor" "White"
		"ScrollBarButton.ArmedBgColor" "Blank"
		"ScrollBarButton.DepressedFgColor" "White"
		"ScrollBarButton.DepressedBgColor" "Blank"
		"ScrollBarSlider.FgColor" "Blank"
		"ScrollBarSlider.BgColor" "255 255 255 64"
		"SectionedListPanel.HeaderTextColor" "White"
		"SectionedListPanel.HeaderBgColor" "Blank"
		"SectionedListPanel.DividerColor" "Black"
		"SectionedListPanel.TextColor" "DullWhite"
		"SectionedListPanel.BrightTextColor" "White"
		"SectionedListPanel.BgColor" "TransparentBlack"
		"SectionedListPanel.SelectedTextColor" "Black"
		"SectionedListPanel.SelectedBgColor" "Orange"
		"SectionedListPanel.OutOfFocusSelectedTextColor" "Black"
		"SectionedListPanel.OutOfFocusSelectedBgColor" "255 155 0 128"
		"Slider.NobColor" "108 108 108 255"
		"Slider.TextColor" "180 180 180 255"
		"Slider.TrackColor" "31 31 31 255"
		"Slider.DisabledTextColor1" "117 117 117 255"
		"Slider.DisabledTextColor2" "30 30 30 255"
		"TextEntry.TextColor" "OffWhite"
		"TextEntry.BgColor" "TransparentBlack"
		"TextEntry.CursorColor" "OffWhite"
		"TextEntry.DisabledTextColor" "DullWhite"
		"TextEntry.DisabledBgColor" "Blank"
		"TextEntry.SelectedTextColor" "Black"
		"TextEntry.SelectedBgColor" "Orange"
		"TextEntry.OutOfFocusSelectedBgColor" "255 155 0 128"
		"TextEntry.FocusEdgeColor" "0 0 0 196"
		"ToggleButton.SelectedTextColor" "White"
		"Tooltip.TextColor" "0 0 0 196"
		"Tooltip.BgColor" "Orange"
		"TreeView.BgColor" "TransparentBlack"
		"WizardSubPanel.BgColor" "Blank"
		"MainMenu.TextColor" "White" [$WIN32]
		"MainMenu.TextColor" "200 200 200 255" [$X360]
		"MainMenu.ArmedTextColor" "200 200 200 255" [$WIN32]
		"MainMenu.ArmedTextColor" "White" [$X360]
		"MainMenu.DepressedTextColor" "192 186 80 255"
		"MainMenu.MenuItemHeight" "16" [$WIN32]
		"MainMenu.MenuItemHeight" "32" [$X360]
		"MainMenu.Inset" "32"
		"MainMenu.Backdrop" "0 0 0 156"
		"Console.TextColor" "OffWhite"
		"Console.DevTextColor" "White"
		"NewGame.TextColor" "White"
		"NewGame.FillColor" "0 0 0 255"
		"NewGame.SelectionColor" "Orange" [$WIN32]
		"NewGame.SelectionColor" "0 0 0 255" [$X360]
		"NewGame.DisabledColor" "128 128 128 196"
		"TFColors.ChatTextYellow" "251 235 202 255"
		"TFColors.ChatTextTeamBlue" "153 204 255 255"
		"TFColors.ChatTextTeamRed" "255 63 53 255"
	}
	"BitmapFontFiles"
	{
		"Buttons" "materials/vgui/fonts/buttons_32.vbf"
	}
	"Fonts"
	{
		"Default"
		{
			"1"
			{
				"name" "Raleway"
				"tall" "12"
				"weight" "0"
				"range" "0x0000 0x017F"
				"yres" "480 599"
			}
			"2"
			{
				"name" "Raleway"
				"tall" "13"
				"weight" "0"
				"range" "0x0000 0x017F"
				"yres" "600 767"
			}
			"3"
			{
				"name" "Raleway"
				"tall" "14"
				"weight" "0"
				"range" "0x0000 0x017F"
				"yres" "768 1023"
				"antialias" "1"
			}
			"4"
			{
				"name" "Raleway"
				"tall" "16"
				"weight" "0"
				"range" "0x0000 0x017F"
				"yres" "1024 1199"
				"antialias" "1"
			}
			"5"
			{
				"name" "Raleway"
				"tall" "20"
				"weight" "0"
				"range" "0x0000 0x017F"
				"yres" "1200 6000"
				"antialias" "1"
			}
		}
		"Marlett"
		{
			"1"
			{
				"name" "Marlett"
				"tall" "10"
				"weight" "0"
				"yres" "480 599"
				"symbol" "1"
			}
			"2"
			{
				"name" "Marlett"
				"tall" "14"
				"weight" "0"
				"yres" "600 767"
				"symbol" "1"
			}
			"3"
			{
				"name" "Marlett"
				"tall" "13"
				"weight" "0"
				"yres" "768 1023"
				"symbol" "1"
			}
			"4"
			{
				"name" "Marlett"
				"tall" "17"
				"weight" "0"
				"yres" "1024 1199"
				"symbol" "1"
			}
			"5"
			{
				"name" "Marlett"
				"tall" "22"
				"weight" "0"
				"yres" "1200 10000"
				"symbol" "1"
			}
		}
		"MarlettSmall"
		{
			"1"
			{
				"name" "Marlett"
				"tall" "7"
				"weight" "0"
				"yres" "480 599"
				"symbol" "1"
			}
			"2"
			{
				"name" "Marlett"
				"tall" "9"
				"weight" "0"
				"yres" "600 767"
				"symbol" "1"
			}
			"3"
			{
				"name" "Marlett"
				"tall" "11"
				"weight" "0"
				"yres" "768 1023"
				"symbol" "1"
			}
			"4"
			{
				"name" "Marlett"
				"tall" "13"
				"weight" "0"
				"yres" "1024 1199"
				"symbol" "1"
			}
			"5"
			{
				"name" "Marlett"
				"tall" "17"
				"weight" "0"
				"yres" "1200 10000"
				"symbol" "1"
			}
		}
		"ChatFont"
		{
			"1"
			{
				"name" "Raleway Bold"
				"tall" "12" [$WIN32]
				"tall" "15" [$X360]
				"weight" "700"
				"yres" "480 599"
				"dropshadow" "1"
			}
			"2"
			{
				"name" "Raleway Bold"
				"tall" "14" [$WIN32]
				"tall" "17" [$X360]
				"weight" "700"
				"yres" "600 767"
				"dropshadow" "1"
			}
			"3"
			{
				"name" "Raleway Bold"
				"tall" "15" [$WIN32]
				"tall" "18" [$X360]
				"weight" "700"
				"yres" "768 1023"
				"dropshadow" "1"
			}
			"4"
			{
				"name" "Raleway Bold"
				"tall" "17" [$WIN32]
				"tall" "20" [$X360]
				"weight" "700"
				"yres" "1024 1199"
				"dropshadow" "1"
			}
			"5"
			{
				"name" "Raleway Bold"
				"tall" "22" [$WIN32]
				"tall" "25" [$X360]
				"weight" "700"
				"yres" "1200 10000"
				"dropshadow" "1"
			}
		}
	}
	"Borders"
	{
		"BaseBorder" "DepressedBorder"
		"ButtonBorder" "RaisedBorder"
		"ComboBoxBorder" "DepressedBorder"
		"MenuBorder" "RaisedBorder"
		"BrowserBorder" "DepressedBorder"
		"PropertySheetBorder" "RaisedBorder"
		"FrameBorder"
		{
			"backgroundtype" "2"
		}
		"DepressedBorder"
		{
			"inset" "0 0 1 1"
			"Left"
			{
				"1"
				{
					"color" "Border.Dark"
					"offset" "0 1"
				}
			}
			"Right"
			{
				"1"
				{
					"color" "Border.Bright"
					"offset" "1 0"
				}
			}
			"Top"
			{
				"1"
				{
					"color" "Border.Dark"
					"offset" "0 0"
				}
			}
			"Bottom"
			{
				"1"
				{
					"color" "Border.Bright"
					"offset" "0 0"
				}
			}
		}
		"RaisedBorder"
		{
			"inset" "0 0 1 1"
			"Left"
			{
				"1"
				{
					"color" "Border.Bright"
					"offset" "0 1"
				}
			}
			"Right"
			{
				"1"
				{
					"color" "Border.Dark"
					"offset" "0 0"
				}
			}
			"Top"
			{
				"1"
				{
					"color" "Border.Bright"
					"offset" "0 1"
				}
			}
			"Bottom"
			{
				"1"
				{
					"color" "Border.Dark"
					"offset" "0 0"
				}
			}
		}
		"TitleButtonBorder"
		{
			"backgroundtype" "0"
		}
		"TitleButtonDisabledBorder"
		{
			"backgroundtype" "0"
		}
		"TitleButtonDepressedBorder"
		{
			"backgroundtype" "0"
		}
		"ScrollBarButtonBorder"
		{
			"inset" "2 2 0 0"
			"Left"
			{
				"1"
				{
					"color" "Border.Bright"
					"offset" "0 1"
				}
			}
			"Right"
			{
				"1"
				{
					"color" "Border.Dark"
					"offset" "1 0"
				}
			}
			"Top"
			{
				"1"
				{
					"color" "Border.Bright"
					"offset" "0 0"
				}
			}
			"Bottom"
			{
				"1"
				{
					"color" "Border.Dark"
					"offset" "0 0"
				}
			}
		}
		"ScrollBarButtonDepressedBorder"
		{
			"inset" "2 2 0 0"
			"Left"
			{
				"1"
				{
					"color" "Border.Dark"
					"offset" "0 1"
				}
			}
			"Right"
			{
				"1"
				{
					"color" "Border.Bright"
					"offset" "1 0"
				}
			}
			"Top"
			{
				"1"
				{
					"color" "Border.Dark"
					"offset" "0 0"
				}
			}
			"Bottom"
			{
				"1"
				{
					"color" "Border.Bright"
					"offset" "0 0"
				}
			}
		}
		"TabBorder"
		{
			"inset" "0 0 1 1"
			"Left"
			{
				"1"
				{
					"color" "Border.Bright"
					"offset" "0 1"
				}
			}
			"Right"
			{
				"1"
				{
					"color" "Border.Dark"
					"offset" "1 0"
				}
			}
			"Top"
			{
				"1"
				{
					"color" "Border.Bright"
					"offset" "0 0"
				}
			}
		}
		"TabActiveBorder"
		{
			"inset" "0 0 1 0"
			"Left"
			{
				"1"
				{
					"color" "Border.Bright"
					"offset" "0 0"
				}
			}
			"Right"
			{
				"1"
				{
					"color" "Border.Dark"
					"offset" "1 0"
				}
			}
			"Top"
			{
				"1"
				{
					"color" "Border.Bright"
					"offset" "0 0"
				}
			}
		}
		"ToolTipBorder"
		{
			"inset" "0 0 1 0"
			"Left"
			{
				"1"
				{
					"color" "Border.Dark"
					"offset" "0 0"
				}
			}
			"Right"
			{
				"1"
				{
					"color" "Border.Dark"
					"offset" "1 0"
				}
			}
			"Top"
			{
				"1"
				{
					"color" "Border.Dark"
					"offset" "0 0"
				}
			}
			"Bottom"
			{
				"1"
				{
					"color" "Border.Dark"
					"offset" "0 0"
				}
			}
		}
		"ButtonKeyFocusBorder"
		{
			"inset" "0 0 1 1"
			"Left"
			{
				"1"
				{
					"color" "Border.Selection"
					"offset" "0 0"
				}
				"2"
				{
					"color" "Border.Bright"
					"offset" "0 1"
				}
			}
			"Top"
			{
				"1"
				{
					"color" "Border.Selection"
					"offset" "0 0"
				}
				"2"
				{
					"color" "Border.Bright"
					"offset" "1 0"
				}
			}
			"Right"
			{
				"1"
				{
					"color" "Border.Selection"
					"offset" "0 0"
				}
				"2"
				{
					"color" "Border.Dark"
					"offset" "1 0"
				}
			}
			"Bottom"
			{
				"1"
				{
					"color" "Border.Selection"
					"offset" "0 0"
				}
				"2"
				{
					"color" "Border.Dark"
					"offset" "0 0"
				}
			}
		}
		"ButtonDepressedBorder"
		{
			"inset" "2 1 1 1"
			"Left"
			{
				"1"
				{
					"color" "Border.Dark"
					"offset" "0 1"
				}
			}
			"Right"
			{
				"1"
				{
					"color" "Border.Bright"
					"offset" "1 0"
				}
			}
			"Top"
			{
				"1"
				{
					"color" "Border.Dark"
					"offset" "0 0"
				}
			}
			"Bottom"
			{
				"1"
				{
					"color" "Border.Bright"
					"offset" "0 0"
				}
			}
		}
	}
	"CustomFontFiles"
	{
		"1" "resource/HALFLIFE2.ttf"
		"2" "resource/HL2EP2.ttf"
		"50" "resource/fonts/DejaVuSansMono.ttf"
		"51" "resource/fonts/HitMarkerFont.ttf"
		"52" "resource/fonts/Raleway-Black.ttf"
		"53" "resource/fonts/Raleway-Bold.ttf"
		"54" "resource/fonts/Raleway-ExtraBold.ttf"
		"55" "resource/fonts/Raleway-ExtraLight.ttf"
		"56" "resource/fonts/Raleway-Light.ttf"
		"57" "resource/fonts/Raleway-Medium.ttf"
		"58" "resource/fonts/Raleway-Regular.ttf"
		"59" "resource/fonts/Raleway-SemiBold.ttf"
		"60" "resource/fonts/Raleway-Thin.ttf"
	}
}
