"Resource/UI/HudAmmoWeapons.res"
{
	"HudWeaponAmmoBG"
	{
		"ControlName"	"CTFImagePanel"
		"fieldName"		"HudWeaponAmmoBG"
		"xpos"			"4"
		"ypos"			"0"
		"zpos"			"1"
		"wide"			"90"
		"tall"			"45"
		"visible"		"0"
		"enabled"		"0"
		"image"			"../hud/ammo_blue_bg"
		"scaleImage"	"1"
		"teambg_2"		"../hud/ammo_red_bg"
		"teambg_2_lodef"	"../hud/ammo_red_bg_lodef"
		"teambg_3"		"../hud/ammo_blue_bg"
		"teambg_3_lodef"	"../hud/ammo_blue_bg_lodef"
	}

	"HudWeaponLowAmmoImage"
	{
		"ControlName"	"ImagePanel"
		"fieldName"		"HudWeaponLowAmmoImage"
		"xpos"			"0"
		"ypos"			"500"
		"zpos"			"0"
		"wide"			"1"
		"tall"			"1"
		"visible"		"0"
		"enabled"		"0"
		"image"			"../hud/ammo_red_bg"
		"scaleImage"	"1"
		"teambg_2"		"../hud/ammo_red_bg"
		"teambg_2_lodef"	"../hud/ammo_red_bg_lodef"
		"teambg_3"		"../hud/ammo_blue_bg"
		"teambg_3_lodef"	"../hud/ammo_blue_bg_lodef"
	}
	"AmmoInClip"
	{
		"ControlName"	"CExLabel"
		"fieldName"		"AmmoInClip"
		"font"			"HudFontGiantBold"
		"fgcolor"		"TanLight"
		"xpos"			"4"
		"ypos"			"0"
		"zpos"			"5"
		"wide"			"55"
		"tall"			"40"
		"tall_lodef"	"45"
		"visible"		"0"
		"enabled"		"1"
		"textAlignment"	"south-east"
		"labelText"		"%Ammo%"

	}
	"AmmoInClipShadow"
	{
		"ControlName"	"CExLabel"
		"fieldName"		"AmmoInClipShadow"
		"font"			"HudFontGiantBold"
		"fgcolor"		"Black"
		"xpos"			"5"
		"xpos_hidef"	"2"
		"ypos"			"1"
		"ypos_hidef"	"2"
		"ypos_lodef"	"2"
		"zpos"			"5"
		"wide"			"55"
		"tall"			"40"
		"tall_lodef"	"45"
		"visible"		"0"
		"enabled"		"1"
		"textAlignment"	"south-east"
		"labelText"		"%Ammo%"

	}
	"AmmoInReserve"
	{
		"ControlName"	"CExLabel"
		"fieldName"		"AmmoInReserve"
		"font"			"HudFontMediumSmall"
		"font_lodef"	"HudFontMedium"
		"fgcolor"		"TanLight"
		"xpos"			"59"
		"ypos"			"8"
		"ypos_lodef"	"10"
		"zpos"			"7"
		"wide"			"40"
		"tall"			"27"
		"tall_lodef"	"30"
		"visible"		"0"
		"enabled"		"1"
		"textAlignment"	"south-west"
		"labelText"		"%AmmoInReserve%"
	}
	"AmmoInReserveShadow"
	{
		"ControlName"	"CExLabel"
		"fieldName"		"AmmoInReserveShadow"
		"font"			"HudFontMediumSmall"
		"font_lodef"	"HudFontMedium"
		"fgcolor"		"TransparentBlack"
		"xpos"			"60"
		"ypos"			"9"
		"ypos_lodef"	"11"
		"zpos"			"7"
		"wide"			"40"
		"tall"			"27"
		"tall_lodef"	"30"
		"visible"		"0"
		"enabled"		"1"
		"textAlignment"	"south-west"
		"labelText"		"%AmmoInReserve%"
	}
	"AmmoNoClip"
	{
		"ControlName"	"CExLabel"
		"fieldName"		"AmmoNoClip"
		"font"			"HudFontGiantBold"
		"fgcolor"		"TanLight"
		"xpos"			"0"
		"ypos"			"2"
		"zpos"			"5"
		"wide"			"84"
		"wide_lodef"	"83"
		"tall"			"40"
		"tall_lodef"	"45"
		"visible"		"0"
		"enabled"		"1"
		"textAlignment"	"south-east"
		"labelText"		"%Ammo%"

	}
	"AmmoNoClipShadow"
	{
		"ControlName"	"CExLabel"
		"fieldName"		"AmmoNoClipShadow"
		"font"			"HudFontGiantBold"
		"fgcolor"		"Black"
		"xpos"			"1"
		"xpos_hidef"	"2"
		"xpos_lodef"	"2"
		"ypos"			"3"
		"ypos_hidef"	"4"
		"ypos_lodef"	"4"
		"zpos"			"5"
		"wide"			"84"
		"wide_lodef"	"83"
		"tall"			"40"
		"tall_lodef"	"45"
		"visible"		"0"
		"enabled"		"1"
		"textAlignment"	"south-east"
		"labelText"		"%Ammo%"

	}
}
