"Resource/UI/HudBowCharge.res"
{
	"ChargeMeter"
	{
		"ControlName"	"ContinuousProgressBar"
		"fieldName"		"ChargeMeter"
		"font"			"Default"
		"xpos"			"0"
		"xpos_minmode"	"0"
		"ypos"			"0"
		"zpos"			"2"
		"wide"			"60"
		"tall"			"6"
		"autoResize"	"0"
		"pinCorner"		"0"
		"visible"		"1"
		"enabled"		"1"
		"textAlignment"	"Left"
		"dulltext"		"0"
		"brighttext"	"0"
	}
}
