"Resource/UI/HudDemomanPipes.res"
{
	"background"
	{
		"ControlName"	"CTFImagePanel"
		"fieldName"		"background"
		"xpos"			"12"
		"ypos"			"6"
		"zpos"			"0"
		"wide"			"76"
		"wide_minmode"	"56"
		"tall"			"38"
		"visible"		"0"
		"visible_minmode"	"0"
		"enabled"		"0"
		"image"			"../hud/misc_ammo_area_blue"
		"scaleImage"	"1"
		"teambg_2"		"../hud/misc_ammo_area_red"
		"teambg_2_lodef"	"../hud/misc_ammo_area_red_lodef"
		"teambg_3"		"../hud/misc_ammo_area_blue"
		"teambg_3_lodef"	"../hud/misc_ammo_area_blue_lodef"
	}

	"ChargeLabel"
	{
		"ControlName"			"CExLabel"
		"fieldName"				"ChargeLabel"
		"xpos"					"25"
		"ypos"					"27"
		"zpos"					"2"
		"wide"					"41"
		"tall"					"15"
		"autoResize"			"1"
		"pinCorner"				"2"
		"visible"				"0"
		"visible_minmode"		"0"
		"enabled"				"1"
		"tabPosition"			"0"
		"labelText"				"#TF_Charge"
		"textAlignment"			"center"
		"dulltext"				"0"
		"brighttext"			"0"
		"font"					"TFFontSmall"
	}

	"ChargeMeter"
	{
		"ControlName"			"ContinuousProgressBar"
		"fieldName"				"ChargeMeter"
		"font"					"Default"
		"xpos"					"25"
		"ypos"					"23"
		"ypos_minmode"			"0"
		"xpos_minmode"			"0"
		"zpos"					"2"
		"wide"					"40"
		"wide_minmode"			"50"
		"tall"					"6"
		"autoResize"			"0"
		"pinCorner"				"0"
		"visible"				"0"
		"enabled"				"0"
		"textAlignment"			"Left"
		"dulltext"				"0"
		"brighttext"			"0"
	}

	"PipesPresentPanel"
	{
		"ControlName"	"EditablePanel"
		"fieldName"		"PipesPresentPanel"
		"xpos"			"0"
		"ypos"			"0"
		"zpos"			"1"
		"wide"			"100"
		"tall"			"50"
		"visible"		"1"

		"PipeIcon"
		{
			"ControlName"	"CTFImagePanel"
			"fieldName"		"PipeIcon"
			"xpos"			"0"
			"ypos"			"4"
			"wide"			"14"
			"tall"			"14"
			"visible"		"0"
			"enabled"		"0"
			"image"			"../hud/ico_stickybomb_red"
			"scaleImage"	"1"
			"teambg_2"		"../hud/ico_stickybomb_red"
			"teambg_3"		"../hud/ico_stickybomb_blue"
		}

		"NumPipesLabel"
		{
			"ControlName"	"CExLabel"
			"fieldName"		"NumPipesLabel"
			"xpos"			"0"
			"ypos"			"0"
			"zpos"			"2"
			"wide"			"35"
			"tall"			"20"
			"tall_lodef"	"28"
			"autoResize"	"1"
			"pinCorner"		"2"
			"visible"		"1"
			"enabled"		"1"
			"tabPosition"	"0"
			"labelText"		"%activepipes%"
			"textAlignment"	"north-west"
			"dulltext"		"0"
			"brighttext"	"0"
			"font"			"HudFontSmall"
			"font_lodef"	"HudFontMediumBig"
		}
		"NumPipesLabelDropshadow"
		{
			"ControlName"	"CExLabel"
			"fieldName"		"NumPipesLabelDropshadow"
			"xpos"			"1"
			"ypos"			"1"
			"zpos"			"2"
			"wide"			"35"
			"tall"			"20"
			"tall_lodef"	"28"
			"autoResize"	"1"
			"pinCorner"		"2"
			"visible"		"1"
			"enabled"		"1"
			"tabPosition"	"0"
			"labelText"		"%activepipes%"
			"textAlignment"	"north-west"
			"dulltext"		"0"
			"brighttext"	"0"
			"font"			"HudFontSmall"
			"font_lodef"	"HudFontMediumBig"
			"fgcolor"		"black"
		}
	}

	"NoPipesPresentPanel"
	{
		"ControlName"	"EditablePanel"
		"fieldName"		"NoPipesPresentPanel"
		"xpos"			"0"
		"ypos"			"0"
		"zpos"			"1"
		"wide"			"100"
		"tall"			"50"
		"visible"		"1"

		"PipeIcon"
		{
			"ControlName"	"CTFImagePanel"
			"fieldName"		"PipeIcon"
			"xpos"			"0"
			"ypos"			"0"
			"wide"			"14"
			"tall"			"14"
			"visible"		"0"
			"enabled"		"0"
			"image"			"../hud/ico_stickybomb_red_faded"
			"scaleImage"	"1"
			"teambg_2"		"../hud/ico_stickybomb_red_faded"
			"teambg_3"		"../hud/ico_stickybomb_blue_faded"
		}

		"NumPipesLabel"
		{
			"ControlName"	"CExLabel"
			"fieldName"		"NumPipesLabel"
			"xpos"			"0"
			"ypos"			"0"
			"zpos"			"2"
			"wide"			"35"
			"tall"			"20"
			"tall_lodef"	"28"
			"autoResize"	"1"
			"pinCorner"		"2"
			"visible"		"1"
			"enabled"		"1"
			"tabPosition"	"0"
			"labelText"		"%activepipes%"
			"textAlignment"	"north-west"
			"dulltext"		"1"
			"brighttext"	"0"
			"font"			"HudFontSmall"
			"font_lodef"	"HudFontMediumBig"
		}
		"NumPipesLabelDropshadow"
		{
			"ControlName"	"CExLabel"
			"fieldName"		"NumPipesLabelDropshadow"
			"xpos"			"1"
			"ypos"			"1"
			"zpos"			"2"
			"wide"			"35"
			"tall"			"20"
			"tall_lodef"	"28"
			"autoResize"	"1"
			"pinCorner"		"2"
			"visible"		"1"
			"enabled"		"1"
			"tabPosition"	"0"
			"labelText"		"%activepipes%"
			"textAlignment"	"north-west"
			"dulltext"		"1"
			"brighttext"	"0"
			"font"			"HudFontSmall"
			"font_lodef"	"HudFontMediumBig"
			"fgcolor"		"black"
		}
	}
}
