"Resource/UI/HudItemEffectMeter.res"
{
	HudItemEffectMeter
	{
		"fieldName"		"HudItemEffectMeter"
		"visible"		"1"
		"enabled"		"1"
		"xpos"			"c-25"	[$WIN32]
		"ypos"			"c30"	[$WIN32]
		"xpos"			"r194"	[$X360]
		"ypos"			"r74"	[$X360]
		"wide"			"100"
		"tall"			"50"
		"MeterFG"		"White"
		"MeterBG"		"Gray"
	}

	"ItemEffectMeterBG"
	{
		"ControlName"	"CTFImagePanel"
		"fieldName"		"ItemEffectMeterBG"
		"xpos"			"12"
		"ypos"			"6"
		"zpos"			"0"
		"wide"			"100"
		"tall"			"50"
		"visible"		"0"
		"visible_minmode"	"0"
		"enabled"		"0"
		"image"			"../hud/misc_ammo_area_horiz1_blue"
		"scaleImage"	"1"
		"teambg_2"		"../hud/misc_ammo_area_horiz1_red"
		"teambg_2_lodef"	"../hud/misc_ammo_area_red_lodef"
		"teambg_3"		"../hud/misc_ammo_area_horiz1_blue"
		"teambg_3_lodef"	"../hud/misc_ammo_area_blue_lodef"
	}

	"ItemEffectMeterLabel"
	{
		"ControlName"			"CExLabel"
		"fieldName"				"ItemEffectMeterLabel"
		"xpos"					"0"
		"ypos"					"6"
		"zpos"					"2"
		"wide"					"50"
		"tall"					"15"
		"autoResize"			"1"
		"pinCorner"				"2"
		"visible"				"0"
		"enabled"				"0"
		"tabPosition"			"0"
		"labelText"				"#TF_Ball"
		"textAlignment"			"center"
		"dulltext"				"0"
		"brighttext"			"0"
		"font"					"TFFontSmall"
	}

	"ItemEffectMeter"
	{
		"ControlName"			"ContinuousProgressBar"
		"fieldName"				"ItemEffectMeter"
		"font"					"Default"
		"xpos"					"0"
		"ypos"					"0"
		"zpos"					"2"
		"wide"					"50"
		"tall"					"5"
		"autoResize"			"0"
		"pinCorner"				"0"
		"visible"				"1"
		"enabled"				"1"
		"textAlignment"			"Left"
		"dulltext"				"0"
		"brighttext"			"0"
	}
}
