"Resource/UI/HudMedicCharge.res"
{
	"ChargeLabel"
	{
		"ControlName"	"CExLabel"
		"fieldName"		"ChargeLabel"
		"xpos"			"0"
		"ypos"			"0"
		"zpos"			"2"
		"wide"			"100"
		"tall"			"10"
		"autoResize"	"1"
		"pinCorner"		"2"
		"visible"		"1"
		"enabled"		"1"
		"tabPosition"	"0"
		"labelText"		"#TF_UberchargeMinHUD"
		"textAlignment"	"north"
		"dulltext"		"0"
		"brighttext"	"0"
		"font"			"HudFontSmallest"
	}

	"IndividualChargesLabel"
	{
		"ControlName"	"CExLabel"
		"fieldName"		"IndividualChargesLabel"
		"xpos"			"c0"
		"ypos"			"40"
		"zpos"			"2"
		"wide"			"90"
		"tall"			"15"
		"autoResize"	"1"
		"visible"		"1"
		"enabled"		"1"
		"tabPosition"	"0"
		"labelText"		"#TF_IndividualUbercharges"
		"textAlignment"	"west"
		"dulltext"		"0"
		"brighttext"	"0"
		"font"			"HudFontSmallest"
	}

	"ChargeMeter"
	{
		"ControlName"	"ContinuousProgressBar"
		"fieldName"		"ChargeMeter"
		"font"			"Default"
		"xpos"			"38"
		"ypos"			"10"
		"zpos"			"2"
		"wide"			"24"
		"tall"			"4"
		"autoResize"	"0"
		"visible"		"1"
		"enabled"		"1"
		"textAlignment"	"Left"
		"dulltext"		"0"
		"brighttext"	"0"
	}

	"ChargeMeter1"
	{
		"ControlName"	"ContinuousProgressBar"
		"fieldName"		"ChargeMeter1"
		"font"			"Default"
		"xpos"			"37"
		"ypos"			"10"
		"zpos"			"2"
		"wide"			"12"
		"tall"			"3"
		"autoResize"	"0"
		"pinCorner"		"0"
		"visible"		"1"
		"enabled"		"1"
		"textAlignment"	"Left"
		"dulltext"		"0"
		"brighttext"	"0"
	}

	"ChargeMeter2"
	{
		"ControlName"	"ContinuousProgressBar"
		"fieldName"		"ChargeMeter2"
		"font"			"Default"
		"xpos"			"52"
		"ypos"			"10"
		"zpos"			"2"
		"wide"			"12"
		"tall"			"3"
		"autoResize"	"0"
		"pinCorner"		"0"
		"visible"		"1"
		"enabled"		"1"
		"textAlignment"	"Left"
		"dulltext"		"0"
		"brighttext"	"0"
	}

	"ChargeMeter3"
	{
		"ControlName"	"ContinuousProgressBar"
		"fieldName"		"ChargeMeter3"
		"font"			"Default"
		"xpos"			"37"
		"ypos"			"15"
		"zpos"			"2"
		"wide"			"12"
		"tall"			"3"
		"autoResize"	"0"
		"pinCorner"		"0"
		"visible"		"1"
		"enabled"		"1"
		"textAlignment"	"Left"
		"dulltext"		"0"
		"brighttext"	"0"
	}

	"ChargeMeter4"
	{
		"ControlName"	"ContinuousProgressBar"
		"fieldName"		"ChargeMeter4"
		"font"			"Default"
		"xpos"			"52"
		"ypos"			"15"
		"zpos"			"2"
		"wide"			"12"
		"tall"			"3"
		"autoResize"	"0"
		"pinCorner"		"0"
		"visible"		"1"
		"enabled"		"1"
		"textAlignment"	"Left"
		"dulltext"		"0"
		"brighttext"	"0"
	}

	"ResistIcon"
	{
		"ControlName"	"ImagePanel"
		"fieldName"		"ResistIcon"
		"xpos"			"0"
		"ypos"			"0"
		"wide"			"24"
		"tall"			"24"
		"visible"		"1"
		"enabled"		"1"
		"image"			"../HUD/defense_buff_bullet_blue"
		"scaleImage"	"1"
	}

}
